{
  "project_info": {
    "project_number": "683147690182",
    "firebase_url": "https://menudecomidas-d354b.firebaseio.com",
    "project_id": "menudecomidas-d354b",
    "storage_bucket": "menudecomidas-d354b.appspot.com"
  },
  "client": [
    {
      "client_info": {
        "mobilesdk_app_id": "1:683147690182:android:65d6658f14634d5b",
        "android_client_info": {
          "package_name": "com.example.desarrollo3.realtimedbfirebase"
        }
      },
      "oauth_client": [
        {
          "client_id": "683147690182-7s8cjkrbja143v9rj90d4pi1an4ovfu5.apps.googleusercontent.com",
          "client_type": 1,
          "android_info": {
            "package_name": "com.example.desarrollo3.realtimedbfirebase",
            "certificate_hash": "2b86f24e8a761fb3050a98f511dd8240d6ccbb17"
          }
        },
        {
          "client_id": "683147690182-ctrn9c71r9hao8bi37i24177d743hp9h.apps.googleusercontent.com",
          "client_type": 3
        }
      ],
      "api_key": [
        {
          "current_key": "AIzaSyBfshx9sFBBOMDhs9wBlf51ceKqsIR-hPc"
        }
      ],
      "services": {
        "analytics_service": {
          "status": 1
        },
        "appinvite_service": {
          "status": 2,
          "other_platform_oauth_client": [
            {
              "client_id": "683147690182-ctrn9c71r9hao8bi37i24177d743hp9h.apps.googleusercontent.com",
              "client_type": 3
            }
          ]
        },
        "ads_service": {
          "status": 2
        }
      }
    }
  ],
  "configuration_version": "1"
}